{
    "_id": "<Object ID>",
    "date": "",
    "venue": {
        "name":"",
        "eventful_id":"",
        "address":"",
        "city": "",
        "state": "",
        "country": "",
        "country_abr": "",
        "location": {
            "type": "Point",
            "coordinates": [-73.856077,40.848447]
        }
    },
    "artist": {
        "spotify_id":"",
        "eventful_id":"",
        "name":"",
        "top_track": {
            "name":"",
            "spotify_id":"",
            ""
        },
        "image_url":""
    }
}